{"_type": "jobs", "aggregations": {"categories": [], "status": [{"key": 3, "doc_count": 1060}]}, "data": [{"id": 2031529, "title": "Chuy\u00ean vi\u00ean Qu\u1ea3n l\u00fd d\u1ef1 \u00e1n", "content": "", "owned_id": 94308, "company": {"id": 94308, "display_name": "C\u00d4NG TY D\u1ecaCH V\u1ee4 MOBIFONE KHU V\u1ef0C 1 - CHI NH\u00c1NH T\u1ed4NG C\u00d4NG TY VI\u1ec4N TH\u00d4NG MOBIFONE(Mobifone KV1)", "image_logo": "https://assets.topdev.vn/images/2023/09/21/TopDev-177549202_3257575151011644_534526205120950655_n---1-MOBIFONE-1695262160.png", "slug": "cong-ty-dich-vu-mobifone-khu-vuc-1-chi-nhanh-tong-cong-ty-vien-thong-mobifone-mobifone-kv1", "detail_url": "https://topdev.vn/nha-tuyen-dung/cong-ty-dich-vu-mobifone-khu-vuc-1-chi-nhanh-tong-cong-ty-vien-thong-mobifone-mobifone-kv1-94308", "image_cover": "https://assets.topdev.vn/images/2023/09/21/TopDev-837fa632584f093eaa36fdb4d2a64f12-65041ae6d24e8---1-MOBIFONE-1695262161.jpg", "image_galleries": [{"id": 480486, "url": "https://assets.topdev.vn/images/2023/09/21/TopDev-b28456f7645a4c53943e0b423a8c0a30-1695262161.jpg", "path": "/images/2023/09/21/TopDev-b28456f7645a4c53943e0b423a8c0a30-1695262161.jpg", "name": "b28456f7645a4c53943e0b423a8c0a30.jpg", "uploaded": {"date": "21-09-2023", "datetime": "2023-09-21 09:09:21", "since": "2 weeks ago", "timestamp": 1695262161}, "source": "Unknown"}, {"id": 480487, "url": "https://assets.topdev.vn/images/2023/09/21/TopDev-837fa632584f093eaa36fdb4d2a64f12-65041ae696d56---1-MOBIFONE-%281%29-1695262161.jpg", "path": "/images/2023/09/21/TopDev-837fa632584f093eaa36fdb4d2a64f12-65041ae696d56---1-MOBIFONE-(1)-1695262161.jpg", "name": "837fa632584f093eaa36fdb4d2a64f12-65041ae696d56 - 1 MOBIFONE (1).jpg", "uploaded": {"date": "21-09-2023", "datetime": "2023-09-21 09:09:22", "since": "2 weeks ago", "timestamp": 1695262162}, "source": "Unknown"}, {"id": 480488, "url": "https://assets.topdev.vn/images/2023/09/21/TopDev-837fa632584f093eaa36fdb4d2a64f12-65041ae6ee896---1-MOBIFONE-1695262162.jpg", "path": "/images/2023/09/21/TopDev-837fa632584f093eaa36fdb4d2a64f12-65041ae6ee896---1-MOBIFONE-1695262162.jpg", "name": "837fa632584f093eaa36fdb4d2a64f12-65041ae6ee896 - 1 MOBIFONE.jpg", "uploaded": {"date": "21-09-2023", "datetime": "2023-09-21 09:09:23", "since": "2 weeks ago", "timestamp": 1695262163}, "source": "Unknown"}, {"id": 480489, "url": "https://assets.topdev.vn/images/2023/09/21/TopDev-7c27ecaaf574f068cf1541b1e1d42935-65041ae732018---1-MOBIFONE-1695262163.jpg", "path": "/images/2023/09/21/TopDev-7c27ecaaf574f068cf1541b1e1d42935-65041ae732018---1-MOBIFONE-1695262163.jpg", "name": "7c27ecaaf574f068cf1541b1e1d42935-65041ae732018 - 1 MOBIFONE.jpg", "uploaded": {"date": "21-09-2023", "datetime": "2023-09-21 09:09:23", "since": "2 weeks ago", "timestamp": 1695262163}, "source": "Unknown"}], "benefits": [{"value": "Tham gia c\u00e1c ch\u01b0\u01a1ng tr\u00ecnh b\u1ea3o hi\u1ec3m s\u1ee9c kho\u1ebb t\u1ea1i c\u00e1c C\u00f4ng ty B\u1ea3o hi\u1ec3m l\u1edbn, c\u00f3 uy t\u00edn (B\u1ea3o Minh, B\u1ea3o hi\u1ec3m h\u00e0ng kh\u00f4ng, PVI\u2026). Gi\u00e1 tr\u1ecb b\u1ea3o hi\u1ec3m l\u00ean t\u1edbi 400 tri\u1ec7u/n\u0103m.", "icon": "fa-pencil"}, {"value": "\u0110\u01b0\u1ee3c tham gia c\u00e1c kh\u00f3a \u0111\u00e0o t\u1ea1o \u0111\u1ec3 n\u00e2ng cao ki\u1ebfn th\u1ee9c, chuy\u00ean m\u00f4n.", "icon": "fa-pencil"}, {"value": "\u0110\u01b0\u1ee3c h\u01b0\u1edfng ch\u1ebf \u0111\u1ed9 \u0111i\u1ec7n tho\u1ea1i li\u00ean l\u1ea1c nghi\u1ec7p v\u1ee5 cho CB-CNV v\u00e0 c\u00e1c ch\u1ebf \u0111\u1ed9 \u01b0u \u0111\u00e3i khi s\u1eed d\u1ee5ng c\u00e1c d\u1ecbch v\u1ee5 c\u1ee7a MobiFone.", "icon": "fa-pencil"}, {"value": "Ph\u00fac l\u1ee3i: ngh\u1ec9 m\u00e1t, du xu\u00e2n, kh\u00e1m s\u1ee9c kh\u1ecfe h\u00e0ng n\u0103m, tr\u1ee3 c\u1ea5p \u1ed1m \u0111au, hi\u1ebfu, h\u1ec9\u2026", "icon": "fa-pencil"}, {"value": "Ngh\u1ec9 ng\u00e0y th\u1ee9 7 v\u00e0 ch\u1ee7 nh\u1eadt.", "icon": "fa-pencil"}], "skills_arr": ["Cloud", "Iot", "5G", "3G", "4G LTE"], "industries_arr": ["D\u1ecbch v\u1ee5 doanh nghi\u1ec7p"], "industries_str": "D\u1ecbch v\u1ee5 doanh nghi\u1ec7p", "is_followed": false}, "extra_skills": [], "skills_arr": ["Project Manager"], "skills_ids": [32], "job_types_str": "In Office", "job_levels_str": "All Levels", "job_levels_arr": ["All Levels"], "job_levels_ids": [8765], "addresses": {"address_region_ids": ["01"], "address_region_list": "Th\u00e0nh ph\u1ed1 H\u00e0 N\u1ed9i", "address_region_array": ["Th\u00e0nh ph\u1ed1 H\u00e0 N\u1ed9i"], "full_addresses": ["01 S\u1ed1 1 \u0111\u01b0\u1eddng Ph\u1ea1m V\u0103n B\u1ea1ch, Ph\u01b0\u1eddng Y\u00ean Ho\u00e0, Qu\u1eadn C\u1ea7u Gi\u1ea5y, Th\u00e0nh ph\u1ed1 H\u00e0 N\u1ed9i"], "sort_addresses": "Qu\u1eadn C\u1ea7u Gi\u1ea5y, H\u00e0 N\u1ed9i", "collection_addresses": [{"id": 185956, "ward": {"id": "00172", "value": "Ph\u01b0\u1eddng Y\u00ean Ho\u00e0"}, "province": {"id": "01", "value": "Th\u00e0nh ph\u1ed1 H\u00e0 N\u1ed9i"}, "district": {"id": "005", "value": "Qu\u1eadn C\u1ea7u Gi\u1ea5y"}, "postal_code": "100000", "full_address": "01 S\u1ed1 1 \u0111\u01b0\u1eddng Ph\u1ea1m V\u0103n B\u1ea1ch, Ph\u01b0\u1eddng Y\u00ean Ho\u00e0, Qu\u1eadn C\u1ea7u Gi\u1ea5y, Th\u00e0nh ph\u1ed1 H\u00e0 N\u1ed9i", "latitude": null, "longitude": null, "street": "01 S\u1ed1 1 \u0111\u01b0\u1eddng Ph\u1ea1m V\u0103n B\u1ea1ch"}]}, "detail_url": "https://topdev.vn/viec-lam/chuyen-vien-quan-ly-du-an-cong-ty-dich-vu-mobifone-khu-vuc-1-chi-nhanh-tong-cong-ty-vien-thong-mobifone-mobifone-kv1-2031529", "job_url": "", "slug": "chuyen-vien-quan-ly-du-an-cong-ty-dich-vu-mobifone-khu-vuc-1-chi-nhanh-tong-cong-ty-vien-thong-mobifone-mobifone-kv1", "salary": {"is_negotiable": "1", "unit": "MONTH", "min": "*", "max": "*", "currency": "VND", "min_estimate": "0", "max_estimate": "0", "currency_estimate": "VND", "value": ""}, "features": [], "packages": ["basic-plus"], "is_free": false, "is_basic": false, "is_basic_plus": true, "is_distinction": false, "is_salary_visible": false, "published": {"date": "21-09-2023", "datetime": "00:00:00 21-09-2023", "since": "3 tu\u1ea7n tr\u01b0\u1edbc"}, "refreshed": {"date": "11-10-2023", "datetime": "02:00:11 11-10-2023", "since": "4 ng\u00e0y tr\u01b0\u1edbc"}, "applied": null, "candidate": null, "is_applied": false, "is_followed": false, "is_blacklisted": false, "recalled_at": null, "is_remove_cv": false, "is_viewed": false, "requirements_arr": [{"value": ["Qu\u1ea3n tr\u1ecb d\u1ef1 \u00e1n: C\u00f3 kh\u1ea3 n\u0103ng ph\u00e2n t\u00edch \u0111\u00e1nh gi\u00e1 nh\u1eefng y\u00eau c\u1ea7u c\u1ee7a kh\u00e1ch h\u00e0ng \u0111\u1ec3 thi\u1ebft k\u1ebf gi\u1ea3i ph\u00e1p tri\u1ec3n khai d\u1ef1 \u00e1n cho kh\u00e1ch h\u00e0ng.", "C\u00f4ng ngh\u1ec7: C\u00f3 ki\u1ebfn th\u1ee9c chuy\u00ean s\u00e2u v\u1ec1 n\u1ec1n t\u1ea3ng v\u00e0 ng\u00f4n ng\u1eef l\u1eadp tr\u00ecnh"], "icon": "fa-circle"}]}, {"id": 2031535, "title": "Azure Technical Support Engineer - Acct team (Fresher welcome)", "content": "<p style=\"text-align: justify;\"><span style=\"font-family: Roboto, Helvetica, Verdana, Arial, sans-serif; font-size: 15px;\">Microsoft Azure, a public cloud computing platform, is a growing collection of integrated cloud services that includes analytics, computing, database, mobile, networking, storage and web. To establish cloud service, one of the keys is have the Identities ready in the Cloud.</span></p>\r\n<p style=\"text-align: justify;\"><span style=\"font-family: Roboto, Helvetica, Verdana, Arial, sans-serif; font-size: 15px;\">Azure Identity support team belongs to Microsoft CSS Cloud &amp; Enterprise Business Unit. This position under Azure Identity support team is responsible for delivering Azure Identity Service and support to our global customers with the high customer satisfaction.</span></p>\r\n<p style=\"text-align: justify;\"><span style=\"font-family: Roboto, Helvetica, Verdana, Arial, sans-serif; font-size: 15px;\">The engineer is responsible for support delivery, working with customers to resolve, complex technical customer issues on the Microsoft Azure Platform. In addition, the engineer will focus on determining technical support scenarios, supportability asks, support workflow adjustments for Azure Identity components; identifying required tools, cloud access, training, processes or capabilities for support to assess issues. Need to closely collaborate with engineering, operations and other CSS engineers.</span></p>\r\n<p style=\"text-align: justify;\"><span style=\"font-family: Roboto, Helvetica, Verdana, Arial, sans-serif; font-size: 15px;\">Specific measurements include achieving the CPE team goals, time to resolution or escalation, enabling a response time similar to competitors; maintaining technical skills through completion of ongoing readiness and new Azure technology training.</span></p>\r\n<p style=\"text-align: justify;\"><span style=\"font-family: Roboto, Helvetica, Verdana, Arial, sans-serif; font-size: 15px;\">The candidate is required to be able to deliver remote proactive service and provide solutions of mission critical issues remotely to WW Microsoft Enterprise Premier Customers with outstanding quality.</span></p>", "owned_id": 94020, "company": {"id": 94020, "display_name": "iTechwx", "image_logo": "https://assets.topdev.vn/images/2023/04/17/TopDev-%5Bremoval.ai%5D_tmp-643d0d4737a99-1681722803.png", "slug": "itechwx", "detail_url": "https://topdev.vn/nha-tuyen-dung/itechwx-94020", "image_cover": "https://assets.topdev.vn/images/2023/05/29/TopDev-ded0ddea4b75c6fb6f24faaa7ec20f01-1685350483.png", "image_galleries": [{"id": 425888, "url": "https://assets.topdev.vn/images/2023/05/29/TopDev-0a150d42adcc183ead1c6007894641b4-1685350867.png", "path": "/images/2023/05/29/TopDev-0a150d42adcc183ead1c6007894641b4-1685350867.png", "name": "0a150d42adcc183ead1c6007894641b4.png", "uploaded": {"date": "29-05-2023", "datetime": "2023-05-29 16:01:08", "since": "4 months ago", "timestamp": 1685350868}, "source": "Unknown"}, {"id": 425889, "url": "https://assets.topdev.vn/images/2023/05/29/TopDev-391c6f49354ed77426dc910e40e84651-1685350868.png", "path": "/images/2023/05/29/TopDev-391c6f49354ed77426dc910e40e84651-1685350868.png", "name": "391c6f49354ed77426dc910e40e84651.png", "uploaded": {"date": "29-05-2023", "datetime": "2023-05-29 16:01:08", "since": "4 months ago", "timestamp": 1685350868}, "source": "Unknown"}, {"id": 425890, "url": "https://assets.topdev.vn/images/2023/05/29/TopDev-d2f00b23525ea6c77710ef49c9815c55-1685350868.png", "path": "/images/2023/05/29/TopDev-d2f00b23525ea6c77710ef49c9815c55-1685350868.png", "name": "d2f00b23525ea6c77710ef49c9815c55.png", "uploaded": {"date": "29-05-2023", "datetime": "2023-05-29 16:01:09", "since": "4 months ago", "timestamp": 1685350869}, "source": "Unknown"}, {"id": 425891, "url": "https://assets.topdev.vn/images/2023/05/29/TopDev-f22d5d5a965b234765368c686b54cfc6-1685350869.png", "path": "/images/2023/05/29/TopDev-f22d5d5a965b234765368c686b54cfc6-1685350869.png", "name": "f22d5d5a965b234765368c686b54cfc6.png", "uploaded": {"date": "29-05-2023", "datetime": "2023-05-29 16:01:09", "since": "4 months ago", "timestamp": 1685350869}, "source": "Unknown"}, {"id": 425893, "url": "https://assets.topdev.vn/images/2023/05/29/TopDev-a9d557cf54f0ee1a7fc7da956430408d-1685351068.png", "path": "/images/2023/05/29/TopDev-a9d557cf54f0ee1a7fc7da956430408d-1685351068.png", "name": "a9d557cf54f0ee1a7fc7da956430408d.png", "uploaded": {"date": "29-05-2023", "datetime": "2023-05-29 16:04:28", "since": "4 months ago", "timestamp": 1685351068}, "source": "Unknown"}, {"id": 445018, "url": "https://assets.topdev.vn/images/2023/07/11/TopDev-6UEaJNjci0u50Rjv-1689059533.png", "path": "/images/2023/07/11/TopDev-6UEaJNjci0u50Rjv-1689059533.png", "name": "8uM8VQbw5P4ZqqH3IUJrlE4HtIq119vKJiKQtUHG.png", "uploaded": {"date": "11-07-2023", "datetime": "2023-07-11 14:12:13", "since": "2 months ago", "timestamp": 1689059533}, "source": "Unknown"}], "benefits": [{"value": "Performance Bonus", "icon": "fa-adn"}, {"value": "Social and Health insurance follow Vietnamese Law", "icon": "fa-heartbeat"}, {"value": "Young & Dynamic Working Environment", "icon": "fa-child"}, {"value": "International Culture", "icon": "fa-globe"}, {"value": "24/7 Insurance for Night-shift", "icon": "fa-angle-double-right"}, {"value": "Annual Health Check-up", "icon": "fa-angle-double-right"}], "skills_arr": ["IT Helpdesk", "Microsoft Access", "English", "IT Consultant", "IT Support", "English - Good", "Cloud", "Technical Support", "Windows", "Technical Consultant", "IT Service", "IT Security", "MS Office", "IT Operations", "Software Engineer", "Microsoft", "Security Engineer", "IT Operation", "Microsoft 365", "English Skills", "IT Specialist", "Technical Engineer", "IT Support Specialist", "Cloud Migration Service (AWS", "IT Outsource"], "industries_arr": ["D\u1ecbch v\u1ee5 IT"], "industries_str": "D\u1ecbch v\u1ee5 IT", "is_followed": false}, "extra_skills": [], "skills_arr": ["Cloud", "Technical Support", "Azure", "English Skills", "Cloud Migration Service (AWS"], "skills_ids": [1298, 1410, 1489, 8286, 8584], "job_types_str": "In Office", "job_levels_str": "Fresher, Junior, Middle, Senior", "job_levels_arr": ["Fresher", "Junior", "Middle", "Senior"], "job_levels_ids": [1617, 8664, 8665, 8666], "addresses": {"address_region_ids": ["79"], "address_region_list": "Th\u00e0nh ph\u1ed1 H\u1ed3 Ch\u00ed Minh", "address_region_array": ["Th\u00e0nh ph\u1ed1 H\u1ed3 Ch\u00ed Minh"], "full_addresses": ["12th Floor, Opal Tower, 92 Nguyen Huu Canh street, Ph\u01b0\u1eddng 22, Qu\u1eadn B\u00ecnh Th\u1ea1nh, Th\u00e0nh ph\u1ed1 H\u1ed3 Ch\u00ed Minh"], "sort_addresses": "Qu\u1eadn B\u00ecnh Th\u1ea1nh, H\u1ed3 Ch\u00ed Minh", "collection_addresses": [{"id": 169476, "ward": {"id": "26956", "value": "Ph\u01b0\u1eddng 22"}, "province": {"id": "79", "value": "Th\u00e0nh ph\u1ed1 H\u1ed3 Ch\u00ed Minh"}, "district": {"id": "765", "value": "Qu\u1eadn B\u00ecnh Th\u1ea1nh"}, "postal_code": "700000", "full_address": "12th Floor, Opal Tower, 92 Nguyen Huu Canh street, Ph\u01b0\u1eddng 22, Qu\u1eadn B\u00ecnh Th\u1ea1nh, Th\u00e0nh ph\u1ed1 H\u1ed3 Ch\u00ed Minh", "latitude": null, "longitude": null, "street": "12th Floor, Opal Tower, 92 Nguyen Huu Canh street"}]}, "detail_url": "https://topdev.vn/viec-lam/azure-technical-support-engineer-acct-team-fresher-welcome-itechwx-2031535", "job_url": "", "slug": "azure-technical-support-engineer-acct-team-fresher-welcome-itechwx", "salary": {"is_negotiable": "1", "unit": "MONTH", "min": "*", "max": "*", "currency": "VND", "min_estimate": "0", "max_estimate": "0", "currency_estimate": "VND", "value": ""}, "features": ["FresherPage"], "packages": ["distinction"], "is_free": false, "is_basic": false, "is_basic_plus": false, "is_distinction": true, "is_salary_visible": false, "published": {"date": "21-09-2023", "datetime": "00:00:00 21-09-2023", "since": "3 tu\u1ea7n tr\u01b0\u1edbc"}, "refreshed": {"date": "11-10-2023", "datetime": "02:00:10 11-10-2023", "since": "4 ng\u00e0y tr\u01b0\u1edbc"}, "applied": null, "candidate": null, "is_applied": false, "is_followed": false, "is_blacklisted": false, "recalled_at": null, "is_remove_cv": false, "is_viewed": false, "requirements_arr": [{"value": ["Opened to All Levels"], "icon": null}, {"value": ["Qualifications:"], "icon": null}, {"value": ["Bachelor degree in Computer Science, Electronic Engineering or equivalent experience.", "Excellent communication skills, collaboration skills, self-motivation and must have a strong team spirit.", "Must have strong verbal and written English skills;", "A minimum of 1-3 year IT experience and demonstrate aptitude for providing superior customer service in politically charged environment.", "Strong analytical logic thinking.", "Understanding of Microsoft Cloud (Azure/O365) and Windows Server products or other application server product family, especially Microsoft Azure AD, AD FS etc. (Plus)"], "icon": "fa-circle"}, {"value": ["Education"], "icon": null}, {"value": ["Bachelor or Master Degree in Computer Science, Electronic Engineering or equivalent experience"], "icon": "fa-circle"}]}, {"id": 2031530, "title": "Chuy\u00ean vi\u00ean Ph\u00e2n t\u00edch d\u1eef li\u1ec7u", "content": "", "owned_id": 94308, "company": {"id": 94308, "display_name": "C\u00d4NG TY D\u1ecaCH V\u1ee4 MOBIFONE KHU V\u1ef0C 1 - CHI NH\u00c1NH T\u1ed4NG C\u00d4NG TY VI\u1ec4N TH\u00d4NG MOBIFONE(Mobifone KV1)", "image_logo": "https://assets.topdev.vn/images/2023/09/21/TopDev-177549202_3257575151011644_534526205120950655_n---1-MOBIFONE-1695262160.png", "slug": "cong-ty-dich-vu-mobifone-khu-vuc-1-chi-nhanh-tong-cong-ty-vien-thong-mobifone-mobifone-kv1", "detail_url": "https://topdev.vn/nha-tuyen-dung/cong-ty-dich-vu-mobifone-khu-vuc-1-chi-nhanh-tong-cong-ty-vien-thong-mobifone-mobifone-kv1-94308", "image_cover": "https://assets.topdev.vn/images/2023/09/21/TopDev-837fa632584f093eaa36fdb4d2a64f12-65041ae6d24e8---1-MOBIFONE-1695262161.jpg", "image_galleries": [{"id": 480486, "url": "https://assets.topdev.vn/images/2023/09/21/TopDev-b28456f7645a4c53943e0b423a8c0a30-1695262161.jpg", "path": "/images/2023/09/21/TopDev-b28456f7645a4c53943e0b423a8c0a30-1695262161.jpg", "name": "b28456f7645a4c53943e0b423a8c0a30.jpg", "uploaded": {"date": "21-09-2023", "datetime": "2023-09-21 09:09:21", "since": "2 weeks ago", "timestamp": 1695262161}, "source": "Unknown"}, {"id": 480487, "url": "https://assets.topdev.vn/images/2023/09/21/TopDev-837fa632584f093eaa36fdb4d2a64f12-65041ae696d56---1-MOBIFONE-%281%29-1695262161.jpg", "path": "/images/2023/09/21/TopDev-837fa632584f093eaa36fdb4d2a64f12-65041ae696d56---1-MOBIFONE-(1)-1695262161.jpg", "name": "837fa632584f093eaa36fdb4d2a64f12-65041ae696d56 - 1 MOBIFONE (1).jpg", "uploaded": {"date": "21-09-2023", "datetime": "2023-09-21 09:09:22", "since": "2 weeks ago", "timestamp": 1695262162}, "source": "Unknown"}, {"id": 480488, "url": "https://assets.topdev.vn/images/2023/09/21/TopDev-837fa632584f093eaa36fdb4d2a64f12-65041ae6ee896---1-MOBIFONE-1695262162.jpg", "path": "/images/2023/09/21/TopDev-837fa632584f093eaa36fdb4d2a64f12-65041ae6ee896---1-MOBIFONE-1695262162.jpg", "name": "837fa632584f093eaa36fdb4d2a64f12-65041ae6ee896 - 1 MOBIFONE.jpg", "uploaded": {"date": "21-09-2023", "datetime": "2023-09-21 09:09:23", "since": "2 weeks ago", "timestamp": 1695262163}, "source": "Unknown"}, {"id": 480489, "url": "https://assets.topdev.vn/images/2023/09/21/TopDev-7c27ecaaf574f068cf1541b1e1d42935-65041ae732018---1-MOBIFONE-1695262163.jpg", "path": "/images/2023/09/21/TopDev-7c27ecaaf574f068cf1541b1e1d42935-65041ae732018---1-MOBIFONE-1695262163.jpg", "name": "7c27ecaaf574f068cf1541b1e1d42935-65041ae732018 - 1 MOBIFONE.jpg", "uploaded": {"date": "21-09-2023", "datetime": "2023-09-21 09:09:23", "since": "2 weeks ago", "timestamp": 1695262163}, "source": "Unknown"}], "benefits": [{"value": "Tham gia c\u00e1c ch\u01b0\u01a1ng tr\u00ecnh b\u1ea3o hi\u1ec3m s\u1ee9c kho\u1ebb t\u1ea1i c\u00e1c C\u00f4ng ty B\u1ea3o hi\u1ec3m l\u1edbn, c\u00f3 uy t\u00edn (B\u1ea3o Minh, B\u1ea3o hi\u1ec3m h\u00e0ng kh\u00f4ng, PVI\u2026). Gi\u00e1 tr\u1ecb b\u1ea3o hi\u1ec3m l\u00ean t\u1edbi 400 tri\u1ec7u/n\u0103m.", "icon": "fa-pencil"}, {"value": "\u0110\u01b0\u1ee3c tham gia c\u00e1c kh\u00f3a \u0111\u00e0o t\u1ea1o \u0111\u1ec3 n\u00e2ng cao ki\u1ebfn th\u1ee9c, chuy\u00ean m\u00f4n.", "icon": "fa-pencil"}, {"value": "\u0110\u01b0\u1ee3c h\u01b0\u1edfng ch\u1ebf \u0111\u1ed9 \u0111i\u1ec7n tho\u1ea1i li\u00ean l\u1ea1c nghi\u1ec7p v\u1ee5 cho CB-CNV v\u00e0 c\u00e1c ch\u1ebf \u0111\u1ed9 \u01b0u \u0111\u00e3i khi s\u1eed d\u1ee5ng c\u00e1c d\u1ecbch v\u1ee5 c\u1ee7a MobiFone.", "icon": "fa-pencil"}, {"value": "Ph\u00fac l\u1ee3i: ngh\u1ec9 m\u00e1t, du xu\u00e2n, kh\u00e1m s\u1ee9c kh\u1ecfe h\u00e0ng n\u0103m, tr\u1ee3 c\u1ea5p \u1ed1m \u0111au, hi\u1ebfu, h\u1ec9\u2026", "icon": "fa-pencil"}, {"value": "Ngh\u1ec9 ng\u00e0y th\u1ee9 7 v\u00e0 ch\u1ee7 nh\u1eadt.", "icon": "fa-pencil"}], "skills_arr": ["Cloud", "Iot", "5G", "3G", "4G LTE"], "industries_arr": ["D\u1ecbch v\u1ee5 doanh nghi\u1ec7p"], "industries_str": "D\u1ecbch v\u1ee5 doanh nghi\u1ec7p", "is_followed": false}, "extra_skills": [], "skills_arr": ["MySQL", "Business Analyst"], "skills_ids": [29, 1456], "job_types_str": "In Office", "job_levels_str": "All Levels", "job_levels_arr": ["All Levels"], "job_levels_ids": [8765], "addresses": {"address_region_ids": ["01"], "address_region_list": "Th\u00e0nh ph\u1ed1 H\u00e0 N\u1ed9i", "address_region_array": ["Th\u00e0nh ph\u1ed1 H\u00e0 N\u1ed9i"], "full_addresses": ["01 S\u1ed1 1 \u0111\u01b0\u1eddng Ph\u1ea1m V\u0103n B\u1ea1ch, Ph\u01b0\u1eddng Y\u00ean Ho\u00e0, Qu\u1eadn C\u1ea7u Gi\u1ea5y, Th\u00e0nh ph\u1ed1 H\u00e0 N\u1ed9i"], "sort_addresses": "Qu\u1eadn C\u1ea7u Gi\u1ea5y, H\u00e0 N\u1ed9i", "collection_addresses": [{"id": 185956, "ward": {"id": "00172", "value": "Ph\u01b0\u1eddng Y\u00ean Ho\u00e0"}, "province": {"id": "01", "value": "Th\u00e0nh ph\u1ed1 H\u00e0 N\u1ed9i"}, "district": {"id": "005", "value": "Qu\u1eadn C\u1ea7u Gi\u1ea5y"}, "postal_code": "100000", "full_address": "01 S\u1ed1 1 \u0111\u01b0\u1eddng Ph\u1ea1m V\u0103n B\u1ea1ch, Ph\u01b0\u1eddng Y\u00ean Ho\u00e0, Qu\u1eadn C\u1ea7u Gi\u1ea5y, Th\u00e0nh ph\u1ed1 H\u00e0 N\u1ed9i", "latitude": null, "longitude": null, "street": "01 S\u1ed1 1 \u0111\u01b0\u1eddng Ph\u1ea1m V\u0103n B\u1ea1ch"}]}, "detail_url": "https://topdev.vn/viec-lam/chuyen-vien-phan-tich-du-lieu-cong-ty-dich-vu-mobifone-khu-vuc-1-chi-nhanh-tong-cong-ty-vien-thong-mobifone-mobifone-kv1-2031530", "job_url": "", "slug": "chuyen-vien-phan-tich-du-lieu-cong-ty-dich-vu-mobifone-khu-vuc-1-chi-nhanh-tong-cong-ty-vien-thong-mobifone-mobifone-kv1", "salary": {"is_negotiable": "1", "unit": "MONTH", "min": "*", "max": "*", "currency": "VND", "min_estimate": "0", "max_estimate": "0", "currency_estimate": "VND", "value": ""}, "features": [], "packages": ["basic-plus"], "is_free": false, "is_basic": false, "is_basic_plus": true, "is_distinction": false, "is_salary_visible": false, "published": {"date": "21-09-2023", "datetime": "00:00:00 21-09-2023", "since": "3 tu\u1ea7n tr\u01b0\u1edbc"}, "refreshed": {"date": "11-10-2023", "datetime": "02:00:10 11-10-2023", "since": "4 ng\u00e0y tr\u01b0\u1edbc"}, "applied": null, "candidate": null, "is_applied": false, "is_followed": false, "is_blacklisted": false, "recalled_at": null, "is_remove_cv": false, "is_viewed": false, "requirements_arr": [{"value": ["C\u00f4ng ngh\u1ec7: c\u00f3 nh\u1eefng ki\u1ebfn th\u1ee9c chuy\u00ean m\u00f4n v\u1ec1 ph\u00e2n t\u00edch th\u1ed1ng k\u00ea, C\u01a1 s\u1edf d\u1eef li\u1ec7u SQL hay ng\u00f4n ng\u1eef truy v\u1ea5n c\u01a1 s\u1edf d\u1eef li\u1ec7u, Ph\u1ea7n m\u1ec1m kh\u1ea3o s\u00e1t / truy v\u1ea5n.", "C\u00f3 k\u1ef9 n\u0103ng khai th\u00e1c d\u1eef li\u1ec7u."], "icon": "fa-circle"}]}], "links": {"first": null, "last": null, "prev": "http://api.topdev.vn/td/v2/jobs/?page=74", "next": null}, "meta": {"total": 743, "per_page": 10, "current_page": 75, "last_page": 75, "from": 741, "to": 743}}